{
  "lang": "pt-br",
  "banners": [
    {
      "id": 1,
      "title": "new",
      "link": "teste",
      "image": "assets/images/banner-1.png",
      "brand_id": 7,
      "types_id": 1,
      "language": "pt-br",
      "status": 1,
      "client_id": 63,
      "car_id": 0,
      "mobile": 1,
      "location": "home",
      "car": null,
      "brand": {
          "id": 2,
          "name": "Volkswagen",
          "created_at": "2015-01-28 19:24:29",
          "updated_at": "2015-01-28 19:24:29"
      }
    },
    {
      "id": 2,
      "title": "new",
      "link": "teste",
      "image": "assets/images/banner-1.png",
      "brand_id": 7,
      "types_id": 1,
      "language": "pt-br",
      "status": 1,
      "client_id": 63,
      "car_id": 0,
      "mobile": 1,
      "location": "home",
      "car": null,
      "brand": {
          "id": 2,
          "name": "Volkswagen",
          "created_at": "2015-01-28 19:24:29",
          "updated_at": "2015-01-28 19:24:29"
      }
    },
    {
      "id": 3,
      "title": "new",
      "link": "teste",
      "image": "assets/images/banner-1.png",
      "brand_id": 7,
      "types_id": 1,
      "language": "pt-br",
      "status": 1,
      "client_id": 63,
      "car_id": 0,
      "mobile": 1,
      "location": "home",
      "car": null,
      "brand": {
          "id": 2,
          "name": "Volkswagen",
          "created_at": "2015-01-28 19:24:29",
          "updated_at": "2015-01-28 19:24:29"
      }
    },
    {
      "id": 1,
      "title": "Acessórios",
      "link": "teste",
      "image": "assets/images/conceptual-banner.png",
      "brand_id": 7,
      "types_id": 1,
      "language": "pt-br",
      "status": 1,
      "client_id": 63,
      "car_id": 0,
      "mobile": 1,
      "location": "interna",
      "car": null,
      "brand": {
          "id": 2,
          "name": "Volkswagen",
          "created_at": "2015-01-28 19:24:29",
          "updated_at": "2015-01-28 19:24:29"
      }
    },
    {
      "id": 2,
      "title": "Teste",
      "link": "",
      "image": "assets/images/conceptual-banner.png",
      "brand_id": 7,
      "types_id": 1,
      "language": "pt-br",
      "status": 1,
      "client_id": 63,
      "car_id": 0,
      "mobile": 1,
      "location": "interna",
      "car": null,
      "brand": {
          "id": 2,
          "name": "Volkswagen",
          "created_at": "2015-01-28 19:24:29",
          "updated_at": "2015-01-28 19:24:29"
      }
    }
  ],
  "mobile": false,
  "categorias": [
    {
      "id": 7,
      "name": "Carros",
      "created_at": "2015-01-28 19:25:01",
      "updated_at": "2015-01-28 19:25:01",
      "order": 1
    },
    {
      "id": 15,
      "name": "Crossovers & SUV",
      "created_at": "2015-04-29 12:53:18",
      "updated_at": "2015-04-29 12:53:18",
      "order": 3
    },
    {
      "id": 10,
      "name": "SUVS & PICK-UPS",
      "created_at": "2015-01-28 19:25:17",
      "updated_at": "2015-05-21 19:57:00",
      "order": 2
    }
  ],
  "carros": [
    {
      "id" : "72",
      "name" : "Duster",
      "price" : "3899000",
      "image" : [
        {
          "id" : "558",
          "image" : "assets/images/renault-duster.png",
          "miniatura" : "20151016064615-ka_branco_artico.png",
          "title" : "",
          "car_model_id" : "",
          "car_color_id" : "",
          "created_at" : "2015-05-08 13:23:05",
          "updated_at" : "2015-10-16 18:46:15",
          "car_id" : "72"
        }
      ],
      "imageURL" : "http://dealers.rewebmkt.com/images/",
      "category" : [
        {
          "id" : "15",
          "name" : "Carros",
          "created_at" : "2015-01-28 19:25:01",
          "updated_at" : "2015-01-28 19:25:01",
          "order" : "1"
        }
      ],
      "maker" : [
        {
          "id" : "7",
          "name" : "Ford",
          "created_at" : "2015-01-28 19:24:49",
          "updated_at" : "2015-01-28 19:24:49"
        }
      ],
      "slug" : "novo-ka",
      "cilinder" : "0",
      "url" : "detalhe-veiculo-novo"
    },
    {
      "id" : "72",
      "name" : "Duster",
      "price" : "3899000",
      "image" : [
        {
          "id" : "558",
          "image" : "assets/images/renault-duster.png",
          "miniatura" : "20151016064615-ka_branco_artico.png",
          "title" : "",
          "car_model_id" : "",
          "car_color_id" : "",
          "created_at" : "2015-05-08 13:23:05",
          "updated_at" : "2015-10-16 18:46:15",
          "car_id" : "72"
        }
      ],
      "imageURL" : "http://dealers.rewebmkt.com/images/",
      "category" : [
        {
          "id" : "7",
          "name" : "Carros",
          "created_at" : "2015-01-28 19:25:01",
          "updated_at" : "2015-01-28 19:25:01",
          "order" : "1"
        }
      ],
      "maker" : [
        {
          "id" : "7",
          "name" : "Ford",
          "created_at" : "2015-01-28 19:24:49",
          "updated_at" : "2015-01-28 19:24:49"
        }
      ],
      "slug" : "novo-ka",
      "cilinder" : "0",
      "url" : "detalhe-veiculo-novo"
    },
    {
      "id" : "73",
      "name" : "Duster",
      "price" : "3899000",
      "image" : [
        {
          "id" : "558",
          "image" : "assets/images/renault-duster.png",
          "miniatura" : "20151016064615-ka_branco_artico.png",
          "title" : "",
          "car_model_id" : "",
          "car_color_id" : "",
          "created_at" : "2015-05-08 13:23:05",
          "updated_at" : "2015-10-16 18:46:15",
          "car_id" : "72"
        }
      ],
      "imageURL" : "http://dealers.rewebmkt.com/images/",
      "category" : [
        {
          "id" : "7",
          "name" : "Carros",
          "created_at" : "2015-01-28 19:25:01",
          "updated_at" : "2015-01-28 19:25:01",
          "order" : "1"
        }
      ],
      "maker" : [
        {
          "id" : "7",
          "name" : "Ford",
          "created_at" : "2015-01-28 19:24:49",
          "updated_at" : "2015-01-28 19:24:49"
        }
      ],
      "slug" : "novo-ka",
      "cilinder" : "0",
      "url" : "detalhe-veiculo-novo"
    },
    {
      "id" : "74",
      "name" : "Duster",
      "price" : "3899000",
      "image" : [
        {
          "id" : "558",
          "image" : "assets/images/renault-duster.png",
          "miniatura" : "20151016064615-ka_branco_artico.png",
          "title" : "",
          "car_model_id" : "",
          "car_color_id" : "",
          "created_at" : "2015-05-08 13:23:05",
          "updated_at" : "2015-10-16 18:46:15",
          "car_id" : "72"
        }
      ],
      "imageURL" : "http://dealers.rewebmkt.com/images/",
      "category" : [
        {
          "id" : "7",
          "name" : "Carros",
          "created_at" : "2015-01-28 19:25:01",
          "updated_at" : "2015-01-28 19:25:01",
          "order" : "1"
        }
      ],
      "maker" : [
        {
          "id" : "7",
          "name" : "Ford",
          "created_at" : "2015-01-28 19:24:49",
          "updated_at" : "2015-01-28 19:24:49"
        }
      ],
      "slug" : "novo-ka",
      "cilinder" : "0",
      "url" : "detalhe-veiculo-novo"
    },
    {
      "id" : "75",
      "name" : "Duster",
      "price" : "3899000",
      "image" : [
        {
          "id" : "558",
          "image" : "assets/images/renault-duster.png",
          "miniatura" : "20151016064615-ka_branco_artico.png",
          "title" : "",
          "car_model_id" : "",
          "car_color_id" : "",
          "created_at" : "2015-05-08 13:23:05",
          "updated_at" : "2015-10-16 18:46:15",
          "car_id" : "72"
        }
      ],
      "imageURL" : "http://dealers.rewebmkt.com/images/",
      "category" : [
        {
          "id" : "7",
          "name" : "Carros",
          "created_at" : "2015-01-28 19:25:01",
          "updated_at" : "2015-01-28 19:25:01",
          "order" : "1"
        }
      ],
      "maker" : [
        {
          "id" : "7",
          "name" : "Ford",
          "created_at" : "2015-01-28 19:24:49",
          "updated_at" : "2015-01-28 19:24:49"
        }
      ],
      "slug" : "novo-ka",
      "cilinder" : "0",
      "url" : "detalhe-veiculo-novo"
    },
    {
      "id" : "76",
      "name" : "Duster",
      "price" : "3899000",
      "image" : [
        {
          "id" : "558",
          "image" : "assets/images/renault-duster.png",
          "miniatura" : "20151016064615-ka_branco_artico.png",
          "title" : "",
          "car_model_id" : "",
          "car_color_id" : "",
          "created_at" : "2015-05-08 13:23:05",
          "updated_at" : "2015-10-16 18:46:15",
          "car_id" : "72"
        }
      ],
      "imageURL" : "http://dealers.rewebmkt.com/images/",
      "category" : [
        {
          "id" : "7",
          "name" : "Carros",
          "created_at" : "2015-01-28 19:25:01",
          "updated_at" : "2015-01-28 19:25:01",
          "order" : "1"
        }
      ],
      "maker" : [
        {
          "id" : "7",
          "name" : "Ford",
          "created_at" : "2015-01-28 19:24:49",
          "updated_at" : "2015-01-28 19:24:49"
        }
      ],
      "slug" : "novo-ka",
      "cilinder" : "0",
      "url" : "detalhe-veiculo-novo"
    },
    {
      "id" : "77",
      "name" : "Duster",
      "price" : "3899000",
      "image" : [
        {
          "id" : "558",
          "image" : "assets/images/renault-duster.png",
          "miniatura" : "20151016064615-ka_branco_artico.png",
          "title" : "",
          "car_model_id" : "",
          "car_color_id" : "",
          "created_at" : "2015-05-08 13:23:05",
          "updated_at" : "2015-10-16 18:46:15",
          "car_id" : "72"
        }
      ],
      "imageURL" : "http://dealers.rewebmkt.com/images/",
      "category" : [
        {
          "id" : "7",
          "name" : "Carros",
          "created_at" : "2015-01-28 19:25:01",
          "updated_at" : "2015-01-28 19:25:01",
          "order" : "1"
        }
      ],
      "maker" : [
        {
          "id" : "7",
          "name" : "Ford",
          "created_at" : "2015-01-28 19:24:49",
          "updated_at" : "2015-01-28 19:24:49"
        }
      ],
      "slug" : "novo-ka",
      "cilinder" : "0",
      "url" : "detalhe-veiculo-novo"
    }
  ],
  "usado": {
    "id": "32786",
    "reference": "AXX9464",
    "title": "Renault Fluence Fastback Titanium Plus 2.0 AT",
    "type": "SEMINOVOS",
    "category": "AUTOMOVEL",
    "segment": "HATCH",
    "year_build": "2013",
    "year_model": "2014",
    "door": "4",
    "description": "VEÍCULO EM ESTOQUE NA FILIAL DE CAMPO LARGO. TEL: (41) 3391-8004 ",
    "odometer": "44800",
    "odometer_type": "Km",
    "odometer_show": "1",
    "status": "1",
    "status_sale": "0",
    "price": "26900.00",
    "bonus": "0.00",
    "price_transfer": null,
    "color_id": "8",
    "fuel_id": "5",
    "transmission_id": "1",
    "client_id": "398",
    "date_register": "2016-03-17 11:04:51",
    "date_edit": "2016-05-03 12:36:46",
    "motor": null,
    "imported": "0",
    "armored": "0",
    "deficient": "0",
    "revision_cons": "0",
    "revision_warranty": "0",
    "warranty_manufact": "0",
    "ipva": "0",
    "licensed": "0",
    "single_owner": "0",
    "highlights": "0",
    "brand": "Volkswagen",
    "brand_model": "Gol",
    "brand_model_version": "Gol 1.0 TEC (Flex) 4p",
    "brand_id": "36",
    "brand_model_id": "480",
    "brand_model_version_id": "14946",
    "fuel": "Flex",
    "transmission": "Manual",
    "color": "Preto",
    "languages": null,
    "gallery": [
      {
        "id": "824493",
        "title": "Renault Fluence",
        "file": "assets/images/renault-fluence.png"
      },
      {
        "id": "824494",
        "title": null,
        "file": "assets/images/renault-fluence.png"
      },
      {
        "id": "824495",
        "title": null,
        "file": "assets/images/renault-fluence.png"
      },
      {
        "id": "824496",
        "title": null,
        "file": "assets/images/renault-fluence.png"
      },
      {
        "id": "824499",
        "title": null,
        "file": "assets/images/renault-fluence.png"
      },
      {
        "id": "824498",
        "title": null,
        "file": "assets/images/renault-fluence.png"
      },
      {
        "id": "824497",
        "title": null,
        "file": "assets/images/renault-duster.png"
      }
    ],
    "options": [
      {
        "id": "1",
        "title": "airbag motorista"
      },
      {
        "id": "3",
        "title": "direção hidráulica"
      },
      {
        "id": "4",
        "title": "vidros elétricos dianteiros"
      },
      {
        "id": "5",
        "title": "travas elétricas"
      },
      {
        "id": "11",
        "title": "airbag passageiro"
      },
      {
        "id": "12",
        "title": "limp. traseiro"
      },
      {
        "id": "13",
        "title": "desemb. traseiro"
      },
      {
        "id": "23",
        "title": "ar-quente"
      },
      {
        "id": "44",
        "title": "calotas"
      }
    ],
    "tags": [],
    "stores": [],
    "store": {
      "id": "398",
      "crm_cliente_id": "1694",
      "name": "Campo Largo",
      "cnpj": "76.586.551/0006-55",
      "phone": "(41) 3391-8000",
      "address": "Av. Ayrton Senna da Silva, 3266",
      "city": "Curitiba",
      "state": "PR",
      "key": "campolargo14",
      "is_nautica": "0",
      "url": "http://www.copava.com.br/",
      "url_detail": null,
      "email": "edilson.miranda@copava.com.br",
      "number": null,
      "url_logo": null,
      "zip_code": null,
      "neighborhood": null,
      "brand_source": "0",
      "hr_atendimento": "",
      "cliente_unidade_id": "2954"
    }
  },
  "usados": [
    {
      "filtros":{
        "brands":[
          {
            "total":"5",
            "brand":"Chevrolet",
            "brand_id":"5",
            "models":[
              {
                "total":"1",
                "brand_model":"Cruze",
                "brand_model_id":"2317"
              },
              {
                "total":"2",
                "brand_model":"Onix",
                "brand_model_id":"2428"
              },
              {
                "total":"1",
                "brand_model":"Prisma",
                "brand_model_id":"902"
              },
              {
                "total":"1",
                "brand_model":"Spin",
                "brand_model_id":"2388"
              }
            ]
          },
          {
            "total":"7",
            "brand":"Fiat",
            "brand_id":"14",
            "models":[
              {
                "total":"1",
                "brand_model":"Idea",
                "brand_model_id":"857"
              },
              {
                "total":"1",
                "brand_model":"Palio",
                "brand_model_id":"214"
              },
              {
                "total":"1",
                "brand_model":"Palio Weekend",
                "brand_model_id":"215"
              },
              {
                "total":"2",
                "brand_model":"Siena",
                "brand_model_id":"220"
              },
              {
                "total":"1",
                "brand_model":"Strada",
                "brand_model_id":"601"
              },
              {
                "total":"1",
                "brand_model":"Uno",
                "brand_model_id":"1087"
              }
            ]
          }
        ],
        "colors":[
          {
            "total":"1",
            "color_title":"Azul",
            "color_id":"11"
          },
          {
            "total":"10",
            "color_title":"Branco",
            "color_id":"5"
          }
        ],
        "transmissions":[
          {
            "total":"9",
            "transmission_title":"Autom\u00e1tico",
            "transmission_id":"2"
          },
          {
            "total":"32",
            "transmission_title":"Manual",
            "transmission_id":"1"
          }
        ],
        "years":[
          {
            "total":"1",
            "year_model":"2007"
          },
          {
            "total":"1",
            "year_model":"2008"
          }
        ],
        "price_min":"13500.00",
        "price_max":"91900.00",
        "odometer_min":"3845",
        "odometer_max":"147530",
        "odometer":[
          {
            "total":"10",
            "min":3000,
            "max":32000
          },
          {
            "total":"14",
            "min":32000,
            "max":60000
          }
        ],
        "price":[
          {
            "total":"16",
            "min":13000,
            "max":28000
          },
          {
            "total":"12",
            "min":28000,
            "max":44000
          }
        ],
        "tags":[

        ]
      },
      "carros":[
        {
          "id":"32786",
          "title":"2013\/2014 GOL 1.0 TREND",
          "brand":"Volkswagen",
          "brand_model":"Gol",
          "brand_model_version":"Gol 1.0 TEC (Flex) 4p",
          "transmission":"Manual",
          "year_build":"2013",
          "year_model":"2014",
          "reference":"AXX9464",
          "highlights":"0",
          "description":"VE\u00cdCULO EM ESTOQUE NA FILIAL DE CAMPO LARGO.\nTEL: (41) 3391-8004 ",
          "color":"Preto",
          "color_id":"8",
          "door":"4",
          "odometer":"44800",
          "odometer_show":"1",
          "fuel":"Flex",
          "price":"27900.00",
          "bonus":"0.00",
          "price_transfer":null,
          "status_sale":"0",
          "store_id":"398",
          "store_crm_cliente_id":"1694",
          "store_name":"Campo Largo",
          "store_cnpj":"76.586.551\/0006-55",
          "store_phone":"(41) 3391-8000",
          "store_address":"Av. Ayrton Senna da Silva, 3266",
          "store_city":"Curitiba",
          "store_state":"PR",
          "store_key":"campolargo14",
          "store_is_nautica":"0",
          "store_url":"http:\/\/www.copava.com.br\/",
          "store_url_detail":null,
          "store_email":"edilson.miranda@copava.com.br",
          "store_number":null,
          "store_url_logo":null,
          "store_zip_code":null,
          "store_neighborhood":null,
          "store_brand_source":"0",
          "store_hr_atendimento":"",
          "store_cliente_unidade_id":"2954",
          "tag_list":null,
          "attr_list":"airbag motorista, airbag passageiro, ar-quente, calotas, desemb. traseiro, dire\u00e7\u00e3o hidr\u00e1ulica, limp. traseiro, travas el\u00e9tricas, vidros el\u00e9tricos dianteiros",
          "languages":null,
          "file":"004199f8366de0a7e78f37ecf4c998a9.JPG",
          "url":"seminovo-detalhe"
        },
        {
          "id":"34500",
          "title":"2014\/2015 NOVO CROSSFOX 1.6",
          "brand":"Volkswagen",
          "brand_model":"CrossFox",
          "brand_model_version":"CrossFox 1.6 16v MSI (Flex)",
          "transmission":"Manual",
          "year_build":"2014",
          "year_model":"2015",
          "reference":"AZO5086",
          "highlights":"0",
          "description":"UNICA DONA\nGARANTIA DE FABRICA\nVE\u00cdCULO EM ESTOQUE NA FILIAL DE CAMPO LARGO.\nTEL: (41) 3391-8004 ",
          "color":"N\u00e3o informada",
          "color_id":"24",
          "door":"4",
          "odometer":"22400",
          "odometer_show":"1",
          "fuel":"Flex",
          "price":"51900.00",
          "bonus":"0.00",
          "price_transfer":null,
          "status_sale":"0",
          "store_id":"398",
          "store_crm_cliente_id":"1694",
          "store_name":"Campo Largo",
          "store_cnpj":"76.586.551\/0006-55",
          "store_phone":"(41) 3391-8000",
          "store_address":"Av. Ayrton Senna da Silva, 3266",
          "store_city":"Curitiba",
          "store_state":"PR",
          "store_key":"campolargo14",
          "store_is_nautica":"0",
          "store_url":"http:\/\/www.copava.com.br\/",
          "store_url_detail":null,
          "store_email":"edilson.miranda@copava.com.br",
          "store_number":null,
          "store_url_logo":null,
          "store_zip_code":null,
          "store_neighborhood":null,
          "store_brand_source":"0",
          "store_hr_atendimento":"",
          "store_cliente_unidade_id":"2954",
          "tag_list":null,
          "attr_list":"airbag motorista, airbag passageiro, ajuste de altura, alarme, ar-condicionado, ar-quente, cd player, cd player com MP3, Chave Reserva, computador de bordo, desemb. traseiro, dire\u00e7\u00e3o el\u00e9trica, distribui\u00e7\u00e3o eletr\u00f4nica de frenagem, entrada USB, farol de neblina, freios ABS, Garantia de f\u00e1brica, IPVA pago, limp. traseiro, r\u00e1dio FM\/AM, retrovisores el\u00e9tricos, rodas de liga leve, sensor de estacionamento, Todas revis\u00f5es feitas, travas el\u00e9tricas, trio eletrico, \u00danico dono, vidros el\u00e9tricos dianteiros e traseiros, volante com regulagem de altura",
          "languages":null,
          "file":"61b9d036cdbf6afd2b3839a3bdf0ac25.JPG",
          "url":"seminovo-detalhe"
        }
      ],
      "limit":"12",
      "busca":{
        "marca": [
          5, 6
        ],
        "modelo": [
          1400, 1455
        ]
      },
      "total":"41",
      "paginacao":{
        "pagina_atual":1,
        "total_paginas":4,
        "html":"<ul class='paginacao'><li class='paginacao'>1</li><li class='><a href='?page=2'>2</a></li><li class='><a href='?page=3'>3</a></li><li class='><a href='?page=4'>4</a></li><li class='next'><a href='?page=2'>Próximo</a></li></ul>"
      },
      "mostrando":{
        "min":1,
        "max":12,
        "total":"41"
      }
    }
  ],
  "carro": {
    "id": 72,
    "name": "Duster",
    "description": "\nO Duster, desenvolvido aqui mesmo no Brasil, é o carro que vai se tornar referência para carros compactos. Design e tecnologia inteligente como você nunca imaginou ser possível num carro deste porte.</p>\r\n",
    "price": 3899000,
    "category": {
      "id": 7,
      "name": "Carros",
      "created_at": "2015-01-28 19:25:01",
      "updated_at": "2015-01-28 19:25:01",
      "order": 1
    },
    "maker": {
      "id": 7,
      "name": "Ford",
      "created_at": "2015-01-28 19:24:49",
      "updated_at": "2015-01-28 19:24:49"
    },
    "models": [
      {
        "id": 194,
        "name": "SE 1.0",
        "car_id": 72,
        "created_at": "2015-05-06 19:32:06",
        "updated_at": "2015-06-05 15:24:54",
        "price": 0,
        "description": null,
        "cilinder": 0
      },
      {
        "id": 195,
        "name": "SE PLUS 1.0",
        "car_id": 72,
        "created_at": "2015-05-06 19:32:06",
        "updated_at": "2015-06-05 15:24:54",
        "price": 0,
        "description": null,
        "cilinder": 0
      },
      {
        "id": 196,
        "name": "SEL 1.0",
        "car_id": 72,
        "created_at": "2015-05-06 19:32:06",
        "updated_at": "2015-06-05 15:24:54",
        "price": 0,
        "description": null,
        "cilinder": 0
      },
      {
        "id": 197,
        "name": "SE 1.5",
        "car_id": 72,
        "created_at": "2015-05-06 19:32:06",
        "updated_at": "2015-06-05 15:24:54",
        "price": 0,
        "description": null,
        "cilinder": 0
      },
      {
        "id": 198,
        "name": "SE PLUS 1.5",
        "car_id": 72,
        "created_at": "2015-05-06 19:32:06",
        "updated_at": "2015-06-05 15:24:54",
        "price": 0,
        "description": null,
        "cilinder": 0
      },
      {
        "id": 199,
        "name": "SEL 1.5",
        "car_id": 72,
        "created_at": "2015-05-06 19:32:06",
        "updated_at": "2015-06-05 15:24:54",
        "price": 0,
        "description": null,
        "cilinder": 0
      }
    ],
    "color": [
      {
        "id": 189,
        "name": "Branco Ártico",
        "color": "#e7ecef",
        "car_id": 72,
        "created_at": "2015-05-06 19:35:24",
        "updated_at": "2015-05-06 19:35:24"
      },
      {
        "id": 190,
        "name": "Branco Vanilla",
        "color": "#f1eee6",
        "car_id": 72,
        "created_at": "2015-05-06 19:35:42",
        "updated_at": "2015-05-06 19:35:42"
      },
      {
        "id": 191,
        "name": "Prata Dublin",
        "color": "#a6a6ab",
        "car_id": 72,
        "created_at": "2015-05-06 19:35:58",
        "updated_at": "2015-05-06 19:35:58"
      },
      {
        "id": 192,
        "name": "Vermelho Merlot",
        "color": "#a9163b",
        "car_id": 72,
        "created_at": "2015-05-06 19:36:17",
        "updated_at": "2015-05-06 19:36:17"
      },
      {
        "id": 193,
        "name": "Vermelho Arpoador",
        "color": "#be313e",
        "car_id": 72,
        "created_at": "2015-05-06 19:36:36",
        "updated_at": "2015-05-06 19:36:36"
      },
      {
        "id": 194,
        "name": "Preto Ebony",
        "color": "#1f2020",
        "car_id": 72,
        "created_at": "2015-05-06 19:36:51",
        "updated_at": "2015-05-06 19:36:51"
      },
      {
        "id": 195,
        "name": "Prata Riviera",
        "color": "#bfac90",
        "car_id": 72,
        "created_at": "2015-05-06 19:37:04",
        "updated_at": "2015-05-06 19:37:04"
      },
      {
        "id": 196,
        "name": "Laranja Savana",
        "color": "#e04826",
        "car_id": 72,
        "created_at": "2015-05-06 19:37:24",
        "updated_at": "2015-05-06 19:37:24"
      }
    ],
    "informations": [
      {
        "name": "GERAL",
        "infos": [
          {
            "name": "Altura do veículo (mm)",
            "values": [
              {
                "description": "1525",
                "model": {
                  "id": 194,
                  "name": "SE 1.0",
                  "car_id": 72,
                  "created_at": "2015-05-06 19:32:06",
                  "updated_at": "2015-06-05 15:24:54",
                  "price": 0,
                  "description": null,
                  "cilinder": 0
                }
              },
              {
                "description": "1525",
                "model": {
                  "id": 195,
                  "name": "SE PLUS 1.0",
                  "car_id": 72,
                  "created_at": "2015-05-06 19:32:06",
                  "updated_at": "2015-06-05 15:24:54",
                  "price": 0,
                  "description": null,
                  "cilinder": 0
                }
              },
              {
                "description": "1525",
                "model": {
                  "id": 196,
                  "name": "SEL 1.0",
                  "car_id": 72,
                  "created_at": "2015-05-06 19:32:06",
                  "updated_at": "2015-06-05 15:24:54",
                  "price": 0,
                  "description": null,
                  "cilinder": 0
                }
              },
              {
                "description": "1525",
                "model": {
                  "id": 197,
                  "name": "SE 1.5",
                  "car_id": 72,
                  "created_at": "2015-05-06 19:32:06",
                  "updated_at": "2015-06-05 15:24:54",
                  "price": 0,
                  "description": null,
                  "cilinder": 0
                }
              },
              {
                "description": "1525",
                "model": {
                  "id": 198,
                  "name": "SE PLUS 1.5",
                  "car_id": 72,
                  "created_at": "2015-05-06 19:32:06",
                  "updated_at": "2015-06-05 15:24:54",
                  "price": 0,
                  "description": null,
                  "cilinder": 0
                }
              },
              {
                "description": "1525",
                "model": {
                  "id": 199,
                  "name": "SEL 1.5",
                  "car_id": 72,
                  "created_at": "2015-05-06 19:32:06",
                  "updated_at": "2015-06-05 15:24:54",
                  "price": 0,
                  "description": null,
                  "cilinder": 0
                }
              }
            ]
          },
          {
            "name": "Combustível",
            "values": [
              {
                "description": "Gasolina / Etanol",
                "model": {
                  "id": 194,
                  "name": "SE 1.0",
                  "car_id": 72,
                  "created_at": "2015-05-06 19:32:06",
                  "updated_at": "2015-06-05 15:24:54",
                  "price": 0,
                  "description": null,
                  "cilinder": 0
                }
              },
              {
                "description": "Gasolina / Etanol",
                "model": {
                  "id": 195,
                  "name": "SE PLUS 1.0",
                  "car_id": 72,
                  "created_at": "2015-05-06 19:32:06",
                  "updated_at": "2015-06-05 15:24:54",
                  "price": 0,
                  "description": null,
                  "cilinder": 0
                }
              },
              {
                "description": "Gasolina / Etanol",
                "model": {
                  "id": 196,
                  "name": "SEL 1.0",
                  "car_id": 72,
                  "created_at": "2015-05-06 19:32:06",
                  "updated_at": "2015-06-05 15:24:54",
                  "price": 0,
                  "description": null,
                  "cilinder": 0
                }
              },
              {
                "description": "Gasolina / Etanol",
                "model": {
                  "id": 197,
                  "name": "SE 1.5",
                  "car_id": 72,
                  "created_at": "2015-05-06 19:32:06",
                  "updated_at": "2015-06-05 15:24:54",
                  "price": 0,
                  "description": null,
                  "cilinder": 0
                }
              },
              {
                "description": "Gasolina / Etanol",
                "model": {
                  "id": 198,
                  "name": "SE PLUS 1.5",
                  "car_id": 72,
                  "created_at": "2015-05-06 19:32:06",
                  "updated_at": "2015-06-05 15:24:54",
                  "price": 0,
                  "description": null,
                  "cilinder": 0
                }
              },
              {
                "description": "Gasolina / Etanol",
                "model": {
                  "id": 199,
                  "name": "SEL 1.5",
                  "car_id": 72,
                  "created_at": "2015-05-06 19:32:06",
                  "updated_at": "2015-06-05 15:24:54",
                  "price": 0,
                  "description": null,
                  "cilinder": 0
                }
              }
            ]
          },
          {
            "name": "Comprimento do veículo (mm)",
            "values": [
              {
                "description": "3886",
                "model": {
                  "id": 194,
                  "name": "SE 1.0",
                  "car_id": 72,
                  "created_at": "2015-05-06 19:32:06",
                  "updated_at": "2015-06-05 15:24:54",
                  "price": 0,
                  "description": null,
                  "cilinder": 0
                }
              },
              {
                "description": "3886",
                "model": {
                  "id": 195,
                  "name": "SE PLUS 1.0",
                  "car_id": 72,
                  "created_at": "2015-05-06 19:32:06",
                  "updated_at": "2015-06-05 15:24:54",
                  "price": 0,
                  "description": null,
                  "cilinder": 0
                }
              },
              {
                "description": "3886",
                "model": {
                  "id": 196,
                  "name": "SEL 1.0",
                  "car_id": 72,
                  "created_at": "2015-05-06 19:32:06",
                  "updated_at": "2015-06-05 15:24:54",
                  "price": 0,
                  "description": null,
                  "cilinder": 0
                }
              },
              {
                "description": "3886",
                "model": {
                  "id": 197,
                  "name": "SE 1.5",
                  "car_id": 72,
                  "created_at": "2015-05-06 19:32:06",
                  "updated_at": "2015-06-05 15:24:54",
                  "price": 0,
                  "description": null,
                  "cilinder": 0
                }
              },
              {
                "description": "3886",
                "model": {
                  "id": 198,
                  "name": "SE PLUS 1.5",
                  "car_id": 72,
                  "created_at": "2015-05-06 19:32:06",
                  "updated_at": "2015-06-05 15:24:54",
                  "price": 0,
                  "description": null,
                  "cilinder": 0
                }
              },
              {
                "description": "3886",
                "model": {
                  "id": 199,
                  "name": "SEL 1.5",
                  "car_id": 72,
                  "created_at": "2015-05-06 19:32:06",
                  "updated_at": "2015-06-05 15:24:54",
                  "price": 0,
                  "description": null,
                  "cilinder": 0
                }
              }
            ]
          },
          {
            "name": "Capacidade de carga (Kg)",
            "values": [
              {
                "description": "443",
                "model": {
                  "id": 194,
                  "name": "SE 1.0",
                  "car_id": 72,
                  "created_at": "2015-05-06 19:32:06",
                  "updated_at": "2015-06-05 15:24:54",
                  "price": 0,
                  "description": null,
                  "cilinder": 0
                }
              },
              {
                "description": "443",
                "model": {
                  "id": 195,
                  "name": "SE PLUS 1.0",
                  "car_id": 72,
                  "created_at": "2015-05-06 19:32:06",
                  "updated_at": "2015-06-05 15:24:54",
                  "price": 0,
                  "description": null,
                  "cilinder": 0
                }
              },
              {
                "description": "424",
                "model": {
                  "id": 196,
                  "name": "SEL 1.0",
                  "car_id": 72,
                  "created_at": "2015-05-06 19:32:06",
                  "updated_at": "2015-06-05 15:24:54",
                  "price": 0,
                  "description": null,
                  "cilinder": 0
                }
              },
              {
                "description": "432",
                "model": {
                  "id": 197,
                  "name": "SE 1.5",
                  "car_id": 72,
                  "created_at": "2015-05-06 19:32:06",
                  "updated_at": "2015-06-05 15:24:54",
                  "price": 0,
                  "description": null,
                  "cilinder": 0
                }
              },
              {
                "description": "432",
                "model": {
                  "id": 198,
                  "name": "SE PLUS 1.5",
                  "car_id": 72,
                  "created_at": "2015-05-06 19:32:06",
                  "updated_at": "2015-06-05 15:24:54",
                  "price": 0,
                  "description": null,
                  "cilinder": 0
                }
              },
              {
                "description": "416",
                "model": {
                  "id": 199,
                  "name": "SEL 1.5",
                  "car_id": 72,
                  "created_at": "2015-05-06 19:32:06",
                  "updated_at": "2015-06-05 15:24:54",
                  "price": 0,
                  "description": null,
                  "cilinder": 0
                }
              }
            ]
          }
        ]
      },
      {
        "name": "EXTERIOR",
        "infos": [
          {
            "name": "Aerofólio traseiro",
            "values": [
              {
                "description": "Na cor do veículo",
                "model": {
                  "id": 194,
                  "name": "SE 1.0",
                  "car_id": 72,
                  "created_at": "2015-05-06 19:32:06",
                  "updated_at": "2015-06-05 15:24:54",
                  "price": 0,
                  "description": null,
                  "cilinder": 0
                }
              },
              {
                "description": "Na cor do veículo",
                "model": {
                  "id": 195,
                  "name": "SE PLUS 1.0",
                  "car_id": 72,
                  "created_at": "2015-05-06 19:32:06",
                  "updated_at": "2015-06-05 15:24:54",
                  "price": 0,
                  "description": null,
                  "cilinder": 0
                }
              },
              {
                "description": "Na cor do veículo",
                "model": {
                  "id": 196,
                  "name": "SEL 1.0",
                  "car_id": 72,
                  "created_at": "2015-05-06 19:32:06",
                  "updated_at": "2015-06-05 15:24:54",
                  "price": 0,
                  "description": null,
                  "cilinder": 0
                }
              },
              {
                "description": "Na cor do veículo",
                "model": {
                  "id": 197,
                  "name": "SE 1.5",
                  "car_id": 72,
                  "created_at": "2015-05-06 19:32:06",
                  "updated_at": "2015-06-05 15:24:54",
                  "price": 0,
                  "description": null,
                  "cilinder": 0
                }
              },
              {
                "description": "Na cor do veículo",
                "model": {
                  "id": 198,
                  "name": "SE PLUS 1.5",
                  "car_id": 72,
                  "created_at": "2015-05-06 19:32:06",
                  "updated_at": "2015-06-05 15:24:54",
                  "price": 0,
                  "description": null,
                  "cilinder": 0
                }
              },
              {
                "description": "Na cor do veículo",
                "model": {
                  "id": 199,
                  "name": "SEL 1.5",
                  "car_id": 72,
                  "created_at": "2015-05-06 19:32:06",
                  "updated_at": "2015-06-05 15:24:54",
                  "price": 0,
                  "description": null,
                  "cilinder": 0
                }
              }
            ]
          },
          {
            "name": "Aplique preto na coluna das portas",
            "values": [
              {
                "description": "X",
                "model": {
                  "id": 194,
                  "name": "SE 1.0",
                  "car_id": 72,
                  "created_at": "2015-05-06 19:32:06",
                  "updated_at": "2015-06-05 15:24:54",
                  "price": 0,
                  "description": null,
                  "cilinder": 0
                }
              },
              {
                "description": "X",
                "model": {
                  "id": 195,
                  "name": "SE PLUS 1.0",
                  "car_id": 72,
                  "created_at": "2015-05-06 19:32:06",
                  "updated_at": "2015-06-05 15:24:54",
                  "price": 0,
                  "description": null,
                  "cilinder": 0
                }
              },
              {
                "description": "X",
                "model": {
                  "id": 196,
                  "name": "SEL 1.0",
                  "car_id": 72,
                  "created_at": "2015-05-06 19:32:06",
                  "updated_at": "2015-06-05 15:24:54",
                  "price": 0,
                  "description": null,
                  "cilinder": 0
                }
              },
              {
                "description": "X",
                "model": {
                  "id": 197,
                  "name": "SE 1.5",
                  "car_id": 72,
                  "created_at": "2015-05-06 19:32:06",
                  "updated_at": "2015-06-05 15:24:54",
                  "price": 0,
                  "description": null,
                  "cilinder": 0
                }
              },
              {
                "description": "X",
                "model": {
                  "id": 198,
                  "name": "SE PLUS 1.5",
                  "car_id": 72,
                  "created_at": "2015-05-06 19:32:06",
                  "updated_at": "2015-06-05 15:24:54",
                  "price": 0,
                  "description": null,
                  "cilinder": 0
                }
              },
              {
                "description": "X",
                "model": {
                  "id": 199,
                  "name": "SEL 1.5",
                  "car_id": 72,
                  "created_at": "2015-05-06 19:32:06",
                  "updated_at": "2015-06-05 15:24:54",
                  "price": 0,
                  "description": null,
                  "cilinder": 0
                }
              }
            ]
          },
          {
            "name": "Capa dos retrovisores externos",
            "values": [
              {
                "description": "Na cor do veículo",
                "model": {
                  "id": 194,
                  "name": "SE 1.0",
                  "car_id": 72,
                  "created_at": "2015-05-06 19:32:06",
                  "updated_at": "2015-06-05 15:24:54",
                  "price": 0,
                  "description": null,
                  "cilinder": 0
                }
              },
              {
                "description": "Na cor do veículo",
                "model": {
                  "id": 195,
                  "name": "SE PLUS 1.0",
                  "car_id": 72,
                  "created_at": "2015-05-06 19:32:06",
                  "updated_at": "2015-06-05 15:24:54",
                  "price": 0,
                  "description": null,
                  "cilinder": 0
                }
              },
              {
                "description": "Na cor do veículo",
                "model": {
                  "id": 196,
                  "name": "SEL 1.0",
                  "car_id": 72,
                  "created_at": "2015-05-06 19:32:06",
                  "updated_at": "2015-06-05 15:24:54",
                  "price": 0,
                  "description": null,
                  "cilinder": 0
                }
              },
              {
                "description": "Na cor do veículo",
                "model": {
                  "id": 197,
                  "name": "SE 1.5",
                  "car_id": 72,
                  "created_at": "2015-05-06 19:32:06",
                  "updated_at": "2015-06-05 15:24:54",
                  "price": 0,
                  "description": null,
                  "cilinder": 0
                }
              },
              {
                "description": "Na cor do veículo",
                "model": {
                  "id": 198,
                  "name": "SE PLUS 1.5",
                  "car_id": 72,
                  "created_at": "2015-05-06 19:32:06",
                  "updated_at": "2015-06-05 15:24:54",
                  "price": 0,
                  "description": null,
                  "cilinder": 0
                }
              },
              {
                "description": "Na cor do veículo",
                "model": {
                  "id": 199,
                  "name": "SEL 1.5",
                  "car_id": 72,
                  "created_at": "2015-05-06 19:32:06",
                  "updated_at": "2015-06-05 15:24:54",
                  "price": 0,
                  "description": null,
                  "cilinder": 0
                }
              }
            ]
          },
          {
            "name": "Chave canivete com controle remoto",
            "values": [
              {
                "description": "X",
                "model": {
                  "id": 194,
                  "name": "SE 1.0",
                  "car_id": 72,
                  "created_at": "2015-05-06 19:32:06",
                  "updated_at": "2015-06-05 15:24:54",
                  "price": 0,
                  "description": null,
                  "cilinder": 0
                }
              },
              {
                "description": "X",
                "model": {
                  "id": 195,
                  "name": "SE PLUS 1.0",
                  "car_id": 72,
                  "created_at": "2015-05-06 19:32:06",
                  "updated_at": "2015-06-05 15:24:54",
                  "price": 0,
                  "description": null,
                  "cilinder": 0
                }
              },
              {
                "description": "X",
                "model": {
                  "id": 196,
                  "name": "SEL 1.0",
                  "car_id": 72,
                  "created_at": "2015-05-06 19:32:06",
                  "updated_at": "2015-06-05 15:24:54",
                  "price": 0,
                  "description": null,
                  "cilinder": 0
                }
              },
              {
                "description": "X",
                "model": {
                  "id": 197,
                  "name": "SE 1.5",
                  "car_id": 72,
                  "created_at": "2015-05-06 19:32:06",
                  "updated_at": "2015-06-05 15:24:54",
                  "price": 0,
                  "description": null,
                  "cilinder": 0
                }
              },
              {
                "description": "X",
                "model": {
                  "id": 198,
                  "name": "SE PLUS 1.5",
                  "car_id": 72,
                  "created_at": "2015-05-06 19:32:06",
                  "updated_at": "2015-06-05 15:24:54",
                  "price": 0,
                  "description": null,
                  "cilinder": 0
                }
              },
              {
                "description": "X",
                "model": {
                  "id": 199,
                  "name": "SEL 1.5",
                  "car_id": 72,
                  "created_at": "2015-05-06 19:32:06",
                  "updated_at": "2015-06-05 15:24:54",
                  "price": 0,
                  "description": null,
                  "cilinder": 0
                }
              }
            ]
          }
        ]
      }
    ],
    "details": [],
    "images": [
      {
        "id": 558,
        "image": "assets/images/renault-fluence-new.png",
        "miniatura": "20151016064615-ka_branco_artico.png",
        "title": "",
        "car_model_id": null,
        "car_color_id": 189,
        "created_at": "2015-05-08 13:23:05",
        "updated_at": "2015-10-16 18:46:15",
        "car_id": 72
      },
      {
        "id": 759,
        "image": "assets/images/renault-fluence.png",
        "miniatura": null,
        "title": "",
        "car_model_id": null,
        "car_color_id": 190,
        "created_at": "2015-05-11 16:35:56",
        "updated_at": "2015-05-11 16:35:56",
        "car_id": 72
      },
      {
        "id": 760,
        "image": "assets/images/renault-duster.png",
        "miniatura": null,
        "title": "",
        "car_model_id": null,
        "car_color_id": 191,
        "created_at": "2015-05-11 16:36:48",
        "updated_at": "2015-05-11 16:36:48",
        "car_id": 72
      }
    ],
    "image": {
      "id": 558,
      "image": "20151016064614-ka_branco_artico.png",
      "miniatura": "20151016064615-ka_branco_artico.png",
      "title": "",
      "car_model_id": null,
      "car_color_id": null,
      "created_at": "2015-05-08 13:23:05",
      "updated_at": "2015-10-16 18:46:15",
      "car_id": 72
    },
    "imageURL": "http://dealers.rewebmkt.com/images/",
    "slug": "novo-ka",
    "cilinder": 0,
    "files": [
      {
        "title": "Ficha técnica",
        "description": "teste",
        "icon": "image",
        "file": "file"
      }
    ]
  },
  "destaques": [
    {
      "id": 1,
      "order": 0,
      "title": "Seminovos",
      "subtitle": "Lorem ipsum dolor sit amet, onsectetur adipiscing elit.",
      "description": "",
      "button": "Saiba Mais",
      "link": "",
      "image": "assets/images/high-seminovos.png",
      "status": 1,
      "client_id": 63
    },
    {
      "id": 2,
      "order": 0,
      "title": "Revisão",
      "subtitle": "Lorem ipsum dolor sit amet, onsectetur adipiscing elit.",
      "description": "",
      "button": "Saiba Mais",
      "link": "",
      "image": "assets/images/high-revisao.png",
      "status": 1,
      "client_id": 63
    },
    {
      "id": 3,
      "order": 0,
      "title": "Fale Conosco",
      "subtitle": "Lorem ipsum dolor sit amet, consectetur adipiscing elit.",
      "description": "",
      "button": "Saiba Mais",
      "link": "",
      "image": "assets/images/high-fale-conosco.png",
      "status": 1,
      "client_id": 63
    }
  ],
  "locales": [
    "Pernambuco",
    "Ceará"
  ],
  "lojas": [
        {
            "id": 1,
            "store": "Lauro de Freitas",
            "email": "teste",
            "address": "Av. Santos Dumont, 2376. Lauro de Freitas, Itinga, BA",
            "phone": "(00) 0000-0000",
            "lat": null,
            "lon": null,
            "zipcode": "98393489",
            "status": 1,
            "client_id": 63,
            "description": "teste",
            "image": "assets/images/store-1.png",
            "crm_unit_id": 2163
        },
        {
            "id": 2,
            "store": "Iguatemi",
            "email": "teste",
            "address": "Av. Antonio Carlos Magalhaes, 255. Iguatemi, Salvador, BA",
            "phone": "(00) 0000-0000",
            "lat": null,
            "lon": null,
            "zipcode": "98393489",
            "status": 1,
            "client_id": 63,
            "description": "teste",
            "image": "assets/images/store-2.png",
            "crm_unit_id": 2163
        },
        {
            "id": 3,
            "store": "Dunas",
            "email": "teste",
            "address": "Av. Santos Dumont, 7600. Dunas, Fortaleza, CE",
            "phone": "(00) 0000-0000",
            "lat": null,
            "lon": null,
            "zipcode": "98393489",
            "status": 1,
            "client_id": 63,
            "description": "teste",
            "image": "assets/images/store-3.png",
            "crm_unit_id": 2163
        },
        {
            "id": 4,
            "store": "Piedade",
            "email": "teste",
            "address": "Av. Ayrton Senna da Silva, 1290. Piedade, Jabotão dos Guararapes, PE",
            "phone": "(00) 0000-0000",
            "lat": null,
            "lon": null,
            "zipcode": "98393489",
            "status": 1,
            "client_id": 63,
            "description": "teste",
            "image": "assets/images/store-4.png",
            "crm_unit_id": 2163
        },
        {
            "id": 5,
            "store": "Imbiribeira",
            "email": "teste",
            "address": "Av. Marechal Mascarenhas de Morais, 2160. Imbiribeira, Recife, PE",
            "phone": "(00) 0000-0000",
            "lat": null,
            "lon": null,
            "zipcode": "98393489",
            "status": 1,
            "client_id": 63,
            "description": "teste",
            "image": "assets/images/store-5.png",
            "crm_unit_id": 2163
        },
        {
            "id": 6,
            "store": "Afogados",
            "email": "teste",
            "address": "Rua João Ivo da Silva, 442. Afogados, Recife, PE",
            "phone": "(00) 0000-0000",
            "lat": null,
            "lon": null,
            "zipcode": "98393489",
            "status": 1,
            "client_id": 63,
            "description": "teste",
            "image": "assets/images/store-6.png",
            "crm_unit_id": 2163
        }
    ]
}
